Chapter 04 Exercises
…
ACT, NSW, South Australia, Tasmania, Victoria, Western Australia peak in Q1 Nothern Territory and Queensland peak in Q3

Use a feature-based approach to look for outlying series in the PBS data. What is unusual about the series you identify as outliers.

PBS  

## # A tsibble: 67,596 x 9 [1M]
## # Key:       Concession, Type, ATC1, ATC2 [336]
##       Month Concession  Type   ATC1  ATC1_desc   ATC2  ATC2_desc   Scripts  Cost
##       <mth> <chr>       <chr>  <chr> <chr>       <chr> <chr>         <dbl> <dbl>
##  1 1991 Jul Concession~ Co-pa~ A     Alimentary~ A01   STOMATOLOG~   18228 67877
##  2 1991 Aug Concession~ Co-pa~ A     Alimentary~ A01   STOMATOLOG~   15327 57011
##  3 1991 Sep Concession~ Co-pa~ A     Alimentary~ A01   STOMATOLOG~   14775 55020
##  4 1991 Oct Concession~ Co-pa~ A     Alimentary~ A01   STOMATOLOG~   15380 57222
##  5 1991 Nov Concession~ Co-pa~ A     Alimentary~ A01   STOMATOLOG~   14371 52120
##  6 1991 Dec Concession~ Co-pa~ A     Alimentary~ A01   STOMATOLOG~   15028 54299
##  7 1992 Jan Concession~ Co-pa~ A     Alimentary~ A01   STOMATOLOG~   11040 39753
##  8 1992 Feb Concession~ Co-pa~ A     Alimentary~ A01   STOMATOLOG~   15165 54405
##  9 1992 Mar Concession~ Co-pa~ A     Alimentary~ A01   STOMATOLOG~   16898 61108
## 10 1992 Apr Concession~ Co-pa~ A     Alimentary~ A01   STOMATOLOG~   18141 65356
## # ... with 67,586 more rows
…
