Chapter 03 Exercises
…
global_GDP_per_cap %>%
  filter(Year == 2017) %>%
  arrange(desc(GDP_per_cap))

## # A tsibble: 262 x 3 [1Y]
## # Key:       Country [262]
## # Groups:    Country [262]
##    Country           Year GDP_per_cap
##    <fct>            <dbl>       <dbl>
##  1 Luxembourg        2017     104103.
##  2 Macao SAR, China  2017      80893.
##  3 Switzerland       2017      80190.
##  4 Norway            2017      75505.
##  5 Iceland           2017      70057.
##  6 Ireland           2017      69331.
##  7 Qatar             2017      63249.
##  8 United States     2017      59532.
##  9 North America     2017      58070.
## 10 Singapore         2017      57714.
## # ... with 252 more rows
…
