Chapter 3: Timer Series Decomposition
…
beer <- aus_production %>%
  filter(year(Quarter) >= 1992) %>%
  select(Quarter, Beer)
beer_ma <- beer %>%
  mutate(
    `4-MA` = slider::slide_dbl(Beer, mean,
                .before = 1, .after = 2, .complete = TRUE),
    `2x4-MA` = slider::slide_dbl(`4-MA`, mean,
                .before = 1, .after = 0, .complete = TRUE)
  )

beer_ma

## # A tsibble: 74 x 4 [1Q]
##    Quarter  Beer `4-MA` `2x4-MA`
##      <qtr> <dbl>  <dbl>    <dbl>
##  1 1992 Q1   443    NA       NA 
##  2 1992 Q2   410   451.      NA 
##  3 1992 Q3   420   449.     450 
##  4 1992 Q4   532   452.     450.
##  5 1993 Q1   433   449      450.
##  6 1993 Q2   421   444      446.
##  7 1993 Q3   410   448      446 
##  8 1993 Q4   512   438      443 
##  9 1994 Q1   449   441.     440.
## 10 1994 Q2   381   446      444.
## # ... with 64 more rows
…
