…
<br></br> **Working with `tsibble` Objects**

We can use `dplyr` functions on `tsibble` objects.Examples below using
the PBS tsibble containing sales data on pharmaceutical products in
Australia

``` r
PBS
```

    ## # A tsibble: 67,596 x 9 [1M]
    ## # Key:       Concession, Type, ATC1, ATC2 [336]
    ##       Month Concession  Type   ATC1  ATC1_desc   ATC2  ATC2_desc   Scripts  Cost
    ##       <mth> <chr>       <chr>  <chr> <chr>       <chr> <chr>         <dbl> <dbl>
    ##  1 1991 Jul Concession~ Co-pa~ A     Alimentary~ A01   STOMATOLOG~   18228 67877
    ##  2 1991 Aug Concession~ Co-pa~ A     Alimentary~ A01   STOMATOLOG~   15327 57011
    ##  3 1991 Sep Concession~ Co-pa~ A     Alimentary~ A01   STOMATOLOG~   14775 55020
    ##  4 1991 Oct Concession~ Co-pa~ A     Alimentary~ A01   STOMATOLOG~   15380 57222
    ##  5 1991 Nov Concession~ Co-pa~ A     Alimentary~ A01   STOMATOLOG~   14371 52120
    ##  6 1991 Dec Concession~ Co-pa~ A     Alimentary~ A01   STOMATOLOG~   15028 54299
    ##  7 1992 Jan Concession~ Co-pa~ A     Alimentary~ A01   STOMATOLOG~   11040 39753
    ##  8 1992 Feb Concession~ Co-pa~ A     Alimentary~ A01   STOMATOLOG~   15165 54405
    ##  9 1992 Mar Concession~ Co-pa~ A     Alimentary~ A01   STOMATOLOG~   16898 61108
    ## 10 1992 Apr Concession~ Co-pa~ A     Alimentary~ A01   STOMATOLOG~   18141 65356
    ## # ... with 67,586 more rows

Using the `filter()` function to call specific value from column:

``` r
PBS %>%
  filter(ATC2 == 'A10')
```

    ## # A tsibble: 816 x 9 [1M]
    ## # Key:       Concession, Type, ATC1, ATC2 [4]
    ##       Month Concession  Type   ATC1  ATC1_desc   ATC2  ATC2_desc  Scripts   Cost
    ##       <mth> <chr>       <chr>  <chr> <chr>       <chr> <chr>        <dbl>  <dbl>
    ##  1 1991 Jul Concession~ Co-pa~ A     Alimentary~ A10   ANTIDIABE~   89733 2.09e6
    ##  2 1991 Aug Concession~ Co-pa~ A     Alimentary~ A10   ANTIDIABE~   77101 1.80e6
    ##  3 1991 Sep Concession~ Co-pa~ A     Alimentary~ A10   ANTIDIABE~   76255 1.78e6
    ##  4 1991 Oct Concession~ Co-pa~ A     Alimentary~ A10   ANTIDIABE~   78681 1.85e6
    ##  5 1991 Nov Concession~ Co-pa~ A     Alimentary~ A10   ANTIDIABE~   70554 1.69e6
    ##  6 1991 Dec Concession~ Co-pa~ A     Alimentary~ A10   ANTIDIABE~   75814 1.84e6
    ##  7 1992 Jan Concession~ Co-pa~ A     Alimentary~ A10   ANTIDIABE~   64186 1.56e6
    ##  8 1992 Feb Concession~ Co-pa~ A     Alimentary~ A10   ANTIDIABE~   75899 1.73e6
    ##  9 1992 Mar Concession~ Co-pa~ A     Alimentary~ A10   ANTIDIABE~   89445 2.05e6
    ## 10 1992 Apr Concession~ Co-pa~ A     Alimentary~ A10   ANTIDIABE~   97315 2.23e6
    ## # ... with 806 more rows

Selecting the specific columns we need with `select()`:

``` r
PBS %>%
  filter(ATC2 == 'A10') %>%
  select(Month, Concession, Type, Cost)
```

    ## # A tsibble: 816 x 4 [1M]
    ## # Key:       Concession, Type [4]
    ##       Month Concession   Type           Cost
    ##       <mth> <chr>        <chr>         <dbl>
    ##  1 1991 Jul Concessional Co-payments 2092878
    ##  2 1991 Aug Concessional Co-payments 1795733
    ##  3 1991 Sep Concessional Co-payments 1777231
    ##  4 1991 Oct Concessional Co-payments 1848507
    ##  5 1991 Nov Concessional Co-payments 1686458
    ##  6 1991 Dec Concessional Co-payments 1843079
    ##  7 1992 Jan Concessional Co-payments 1564702
    ##  8 1992 Feb Concessional Co-payments 1732508
    ##  9 1992 Mar Concessional Co-payments 2046102
    ## 10 1992 Apr Concessional Co-payments 2225977
    ## # ... with 806 more rows

`select()` handles columns while `filter()` handles rows

`summarize()` allows you to combine data across keys:

``` r
PBS %>%
  filter(ATC2 == 'A10') %>%
  select(Month, Concession, Type, Cost) %>%
  summarize(TotalC = sum(Cost))
```

    ## # A tsibble: 204 x 2 [1M]
    ##       Month  TotalC
    ##       <mth>   <dbl>
    ##  1 1991 Jul 3526591
    ##  2 1991 Aug 3180891
    ##  3 1991 Sep 3252221
    ##  4 1991 Oct 3611003
    ##  5 1991 Nov 3565869
    ##  6 1991 Dec 4306371
    ##  7 1992 Jan 5088335
    ##  8 1992 Feb 2814520
    ##  9 1992 Mar 2985811
    ## 10 1992 Apr 3204780
    ## # ... with 194 more rows

Creating new variables using `mutate()`

``` r
PBS %>%
  filter(ATC2 == 'A10') %>%
  select(Month, Concession, Type, Cost) %>%
  summarize(TotalC = sum(Cost)) %>%
  mutate(Cost = TotalC/1e6)
```

    ## # A tsibble: 204 x 3 [1M]
    ##       Month  TotalC  Cost
    ##       <mth>   <dbl> <dbl>
    ##  1 1991 Jul 3526591  3.53
    ##  2 1991 Aug 3180891  3.18
    ##  3 1991 Sep 3252221  3.25
    ##  4 1991 Oct 3611003  3.61
    ##  5 1991 Nov 3565869  3.57
    ##  6 1991 Dec 4306371  4.31
    ##  7 1992 Jan 5088335  5.09
    ##  8 1992 Feb 2814520  2.81
    ##  9 1992 Mar 2985811  2.99
    ## 10 1992 Apr 3204780  3.20
    ## # ... with 194 more rows
…
``` r
# The original CSV has the date variable as individual days and they should be quarters

prison <- prison %>%
  mutate(Quarter = yearquarter(Date)) %>%
  select(-Date) %>%
  as_tsibble(key = c(State, Gender, Legal, Indigenous),
             index = Quarter)

prison
```

    ## # A tsibble: 3,072 x 6 [1Q]
    ## # Key:       State, Gender, Legal, Indigenous [64]
    ##    State Gender Legal    Indigenous Count Quarter
    ##    <chr> <chr>  <chr>    <chr>      <dbl>   <qtr>
    ##  1 ACT   Female Remanded ATSI           0 2005 Q1
    ##  2 ACT   Female Remanded ATSI           1 2005 Q2
    ##  3 ACT   Female Remanded ATSI           0 2005 Q3
    ##  4 ACT   Female Remanded ATSI           0 2005 Q4
    ##  5 ACT   Female Remanded ATSI           1 2006 Q1
    ##  6 ACT   Female Remanded ATSI           1 2006 Q2
    ##  7 ACT   Female Remanded ATSI           1 2006 Q3
    ##  8 ACT   Female Remanded ATSI           0 2006 Q4
    ##  9 ACT   Female Remanded ATSI           0 2007 Q1
    ## 10 ACT   Female Remanded ATSI           1 2007 Q2
    ## # ... with 3,062 more rows
…
