Chapter 02 Exercises
…
my_timeseries <- tute1 %>%
  mutate(Quarter = yearmonth(Quarter)) %>%
  as_tsibble(index = Quarter)

my_timeseries

## # A tsibble: 100 x 4 [3M]
##     Quarter Sales AdBudget   GDP
##       <mth> <dbl>    <dbl> <dbl>
##  1 1981 Mar 1020.     659.  252.
##  2 1981 Jun  889.     589   291.
##  3 1981 Sep  795      512.  291.
##  4 1981 Dec 1004.     614.  292.
##  5 1982 Mar 1058.     647.  279.
##  6 1982 Jun  944.     602   254 
##  7 1982 Sep  778.     531.  296.
##  8 1982 Dec  932.     608.  272.
##  9 1983 Mar  996.     638.  260.
## 10 1983 Jun  908.     582.  280.
## # ... with 90 more rows
…
Download tourism.xlsx from the book website and read it into R using readxl::read_excel().

Create a tsibble which is identical to the tourism tsibble from the tsibble package.

Find what combination of Region and Purpose had the maximum number of overnight trips on average.

Create a new tsibble which combines the Purposes and Regions, and just has total trips by State.

tourism #original tourism tsibble

## # A tsibble: 24,320 x 5 [1Q]
## # Key:       Region, State, Purpose [304]
##    Quarter Region   State           Purpose  Trips
##      <qtr> <chr>    <chr>           <chr>    <dbl>
##  1 1998 Q1 Adelaide South Australia Business  135.
##  2 1998 Q2 Adelaide South Australia Business  110.
##  3 1998 Q3 Adelaide South Australia Business  166.
##  4 1998 Q4 Adelaide South Australia Business  127.
##  5 1999 Q1 Adelaide South Australia Business  137.
##  6 1999 Q2 Adelaide South Australia Business  200.
##  7 1999 Q3 Adelaide South Australia Business  169.
##  8 1999 Q4 Adelaide South Australia Business  134.
##  9 2000 Q1 Adelaide South Australia Business  154.
## 10 2000 Q2 Adelaide South Australia Business  169.
## # ... with 24,310 more rows

# creating the tsibble to match tourism

fpp_tourism <- readxl::read_excel('tourism.xlsx')

fpp_tourism <- fpp_tourism %>%
  mutate(Quarter = yearquarter(Quarter)) %>%
  as_tsibble(key = c(Region, State, Purpose), 
             index=Quarter)

fpp_tourism

## # A tsibble: 24,320 x 5 [1Q]
## # Key:       Region, State, Purpose [304]
##    Quarter Region   State           Purpose  Trips
##      <qtr> <chr>    <chr>           <chr>    <dbl>
##  1 1998 Q1 Adelaide South Australia Business  135.
##  2 1998 Q2 Adelaide South Australia Business  110.
##  3 1998 Q3 Adelaide South Australia Business  166.
##  4 1998 Q4 Adelaide South Australia Business  127.
##  5 1999 Q1 Adelaide South Australia Business  137.
##  6 1999 Q2 Adelaide South Australia Business  200.
##  7 1999 Q3 Adelaide South Australia Business  169.
##  8 1999 Q4 Adelaide South Australia Business  134.
##  9 2000 Q1 Adelaide South Australia Business  154.
## 10 2000 Q2 Adelaide South Australia Business  169.
## # ... with 24,310 more rows

# finding the Region/Purpose combo with highest number trips on avg

fpp_tourism %>%
  as_tibble %>% # quick conversion to tibble seems to be necessary
  group_by(Region, Purpose) %>%
  summarize(avg_trips = mean(Trips)) %>%
  arrange(desc(avg_trips))

## `summarise()` has grouped output by 'Region'. You can override using the `.groups` argument.

## # A tibble: 304 x 3
## # Groups:   Region [76]
##    Region          Purpose  avg_trips
##    <chr>           <chr>        <dbl>
##  1 Sydney          Visiting      747.
##  2 Melbourne       Visiting      619.
##  3 Sydney          Business      602.
##  4 North Coast NSW Holiday       588.
##  5 Sydney          Holiday       550.
##  6 Gold Coast      Holiday       528.
##  7 Melbourne       Holiday       507.
##  8 South Coast     Holiday       495.
##  9 Brisbane        Visiting      493.
## 10 Melbourne       Business      478.
## # ... with 294 more rows
…
Tourism from Japan peaked in the late 90s

Q2 and Q3 have many fewer UK tourists than Q1 and Q4

Majority of tourists from Japan and NZ are in Q3

Monthly Australian retail data is provided in aus_retail. Select one of the time series as follows (but choose your own seed value):

set.seed(222)
myseries <- aus_retail %>%
  filter(`Series ID` == sample(aus_retail$`Series ID`,1))

myseries

## # A tsibble: 441 x 5 [1M]
## # Key:       State, Industry [1]
##    State              Industry                     `Series ID`    Month Turnover
##    <chr>              <chr>                        <chr>          <mth>    <dbl>
##  1 Australian Capita~ Hardware, building and gard~ A3349848X   1982 Apr      2.6
##  2 Australian Capita~ Hardware, building and gard~ A3349848X   1982 May      3.3
##  3 Australian Capita~ Hardware, building and gard~ A3349848X   1982 Jun      2.7
##  4 Australian Capita~ Hardware, building and gard~ A3349848X   1982 Jul      2.4
##  5 Australian Capita~ Hardware, building and gard~ A3349848X   1982 Aug      2.7
##  6 Australian Capita~ Hardware, building and gard~ A3349848X   1982 Sep      3.1
##  7 Australian Capita~ Hardware, building and gard~ A3349848X   1982 Oct      3.5
##  8 Australian Capita~ Hardware, building and gard~ A3349848X   1982 Nov      4.6
##  9 Australian Capita~ Hardware, building and gard~ A3349848X   1982 Dec      7.4
## 10 Australian Capita~ Hardware, building and gard~ A3349848X   1983 Jan      3.3
## # ... with 431 more rows
…
The following time plots and ACF plots correspond to four different time series. Your task is to match each time plot in the first row with one of the ACF plots in the second row.

My best guesses: 1:C, 2:A, 3:D, 4:A

The aus_livestock data contains the monthly total number of pigs slaughtered in Victoria, Australia, from Jul 1972 to Dec 2018. Use filter() to extract pig slaughters in Victoria between 1990 and 1995. Use autoplot() and ACF() for this data. How do they differ from white noise? If a longer period of data is used, what difference does it make to the ACF?

aus_livestock_9095 <- aus_livestock %>%
  filter(Month >= yearmonth('1990 Jan'), 
         Month <= yearmonth('1995 Dec'),
         Animal == 'Pigs') %>%
  summarize(Count = sum(Count))

aus_livestock_9095

## # A tsibble: 72 x 2 [1M]
##       Month  Count
##       <mth>  <dbl>
##  1 1990 Jan 371400
##  2 1990 Feb 377200
##  3 1990 Mar 431300
##  4 1990 Apr 391400
##  5 1990 May 461200
##  6 1990 Jun 430800
##  7 1990 Jul 413900
##  8 1990 Aug 424100
##  9 1990 Sep 406700
## 10 1990 Oct 407700
## # ... with 62 more rows
…
